﻿{
  "parameters": [
    {
      "name": "data-tchmi-label",
      "displayName": "Label",
      "visible": true,
      "type": "tchmi:general#/definitions/String",
      "category": "",
      "description": "",
      "requiredOnCompile": false,
      "readOnly": false,
      "bindable": true,
      "heritable": true,
      "propertyName": "Label",
      "propertySetterName": "setLabel",
      "propertyGetterName": "getLabel",
      "refTo": ""
    },
    {
      "name": "data-tchmi-plctag",
      "displayName": "PLCTag",
      "visible": true,
      "type": "tchmi:general#/definitions/BOOL",
      "category": "",
      "description": "",
      "defaultValue": false,
      "requiredOnCompile": false,
      "readOnly": false,
      "bindable": true,
      "heritable": true,
      "propertyName": "PLCTag",
      "propertySetterName": "setPLCTag",
      "propertyGetterName": "getPLCTag",
      "refTo": ""
    }
  ],
  "virtualRights": [],
  "$schema": "../../Packages/Beckhoff.TwinCAT.HMI.Framework.12.742.5/runtimes/native1.12-tchmi/Schema/UserControlConfig.Schema.json",
  "description": ""
}