﻿{
  "$schema": "http://json-schema.org/draft-04/schema#",
  "definitions": {
    "AlphaNumericalField": {
      "frameworkControlNamespace": "TcHmi.Controls.Beckhoff",
      "frameworkControlType": "TcHmi.Controls.System.TcHmiUserControl",
      "frameworkInstanceOf": "TcHmi.Controls.System.TcHmiControl",
      "frameworkUserControlConfig": "UserControls\\AlphaNumericalField.usercontrol.json",
      "type": "object",
      "id": "tchmi:project#/definitions/AlphaNumericalField"
    },
    "AlphaNumericInputField": {
      "frameworkControlNamespace": "TcHmi.Controls.Beckhoff",
      "frameworkControlType": "TcHmi.Controls.System.TcHmiUserControl",
      "frameworkInstanceOf": "TcHmi.Controls.System.TcHmiControl",
      "frameworkUserControlConfig": "UserControls\\AlphaNumericInputField.usercontrol.json",
      "type": "object",
      "id": "tchmi:project#/definitions/AlphaNumericInputField"
    },
    "DropboxInputField": {
      "frameworkControlNamespace": "TcHmi.Controls.Beckhoff",
      "frameworkControlType": "TcHmi.Controls.System.TcHmiUserControl",
      "frameworkInstanceOf": "TcHmi.Controls.System.TcHmiControl",
      "frameworkUserControlConfig": "UserControls\\DropboxInputField.usercontrol.json",
      "type": "object",
      "id": "tchmi:project#/definitions/DropboxInputField"
    },
    "LampStatus": {
      "frameworkControlNamespace": "TcHmi.Controls.Beckhoff",
      "frameworkControlType": "TcHmi.Controls.System.TcHmiUserControl",
      "frameworkInstanceOf": "TcHmi.Controls.System.TcHmiControl",
      "frameworkUserControlConfig": "UserControls\\LampStatus.usercontrol.json",
      "type": "object",
      "id": "tchmi:project#/definitions/LampStatus"
    },
    "NumericalField": {
      "frameworkControlNamespace": "TcHmi.Controls.Beckhoff",
      "frameworkControlType": "TcHmi.Controls.System.TcHmiUserControl",
      "frameworkInstanceOf": "TcHmi.Controls.System.TcHmiControl",
      "frameworkUserControlConfig": "UserControls\\NumericalField.usercontrol.json",
      "type": "object",
      "id": "tchmi:project#/definitions/NumericalField"
    },
    "NumericalInputField": {
      "frameworkControlNamespace": "TcHmi.Controls.Beckhoff",
      "frameworkControlType": "TcHmi.Controls.System.TcHmiUserControl",
      "frameworkInstanceOf": "TcHmi.Controls.System.TcHmiControl",
      "frameworkUserControlConfig": "UserControls\\NumericalInputField.usercontrol.json",
      "type": "object",
      "id": "tchmi:project#/definitions/NumericalInputField"
    },
    "NumericKeyboard": {
      "frameworkControlNamespace": "TcHmi.Controls.Beckhoff",
      "frameworkControlType": "TcHmi.Controls.System.TcHmiUserControl",
      "frameworkInstanceOf": "TcHmi.Controls.System.TcHmiControl",
      "frameworkUserControlConfig": "UserControls\\NumericKeyboard.usercontrol.json",
      "type": "object",
      "id": "tchmi:project#/definitions/NumericKeyboard"
    },
    "NumericPasswordKeyboard": {
      "frameworkControlNamespace": "TcHmi.Controls.Beckhoff",
      "frameworkControlType": "TcHmi.Controls.System.TcHmiUserControl",
      "frameworkInstanceOf": "TcHmi.Controls.System.TcHmiControl",
      "frameworkUserControlConfig": "UserControls\\NumericPasswordKeyboard.usercontrol.json",
      "type": "object",
      "id": "tchmi:project#/definitions/NumericPasswordKeyboard"
    },
    "StandardKeyboard": {
      "frameworkControlNamespace": "TcHmi.Controls.Beckhoff",
      "frameworkControlType": "TcHmi.Controls.System.TcHmiUserControl",
      "frameworkInstanceOf": "TcHmi.Controls.System.TcHmiControl",
      "frameworkUserControlConfig": "UserControls\\StandardKeyboard.usercontrol.json",
      "type": "object",
      "id": "tchmi:project#/definitions/StandardKeyboard"
    },
    "TimeField": {
      "frameworkControlNamespace": "TcHmi.Controls.Beckhoff",
      "frameworkControlType": "TcHmi.Controls.System.TcHmiUserControl",
      "frameworkInstanceOf": "TcHmi.Controls.System.TcHmiControl",
      "frameworkUserControlConfig": "UserControls\\TimeField.usercontrol.json",
      "type": "object",
      "id": "tchmi:project#/definitions/TimeField"
    },
    "Symbol_Of_TcHmiRegion": {
      "allOf": [
        {
          "$ref": "tchmi:framework#/definitions/Symbol"
        },
        {
          "frameworkSymbolSubType": {
            "$ref": "tchmi:framework#/definitions/TcHmiRegion"
          }
        }
      ]
    },
    "TensionBarGraph": {
      "frameworkControlNamespace": "TcHmi.Controls.Beckhoff",
      "frameworkControlType": "TcHmi.Controls.System.TcHmiUserControl",
      "frameworkInstanceOf": "TcHmi.Controls.System.TcHmiControl",
      "frameworkUserControlConfig": "UserControls\\BarGraph.usercontrol.json",
      "type": "object",
      "id": "tchmi:project#/definitions/TensionBarGraph"
    },
    "DataGrid": {
      "frameworkControlNamespace": "TcHmi.Controls.Beckhoff",
      "frameworkControlType": "TcHmi.Controls.System.TcHmiUserControl",
      "frameworkInstanceOf": "TcHmi.Controls.System.TcHmiControl",
      "frameworkUserControlConfig": "UserControls\\DataGrid.usercontrol.json",
      "id": "tchmi:project#/definitions/DataGrid",
      "type": "object"
    }
  }
}