﻿{
  "parameters": [
    {
      "name": "data-tchmi-value",
      "displayName": "Value",
      "visible": true,
      "type": "tchmi:general#/definitions/String",
      "category": "Read Only (Set by linked input field)",
      "description": "",
      "requiredOnCompile": false,
      "readOnly": false,
      "bindable": true,
      "heritable": true,
      "propertyName": "Value",
      "propertySetterName": "setValue",
      "propertyGetterName": "getValue",
      "refTo": ""
    },
    {
      "name": "data-tchmi-label",
      "displayName": "Label",
      "visible": true,
      "type": "tchmi:general#/definitions/String",
      "category": "Read Only (Set by linked input field)",
      "description": "",
      "requiredOnCompile": false,
      "readOnly": false,
      "bindable": true,
      "heritable": true,
      "propertyName": "Label",
      "propertySetterName": "setLabel",
      "propertyGetterName": "getLabel",
      "refTo": ""
    },
    {
      "name": "data-tchmi-show",
      "displayName": "Show",
      "visible": true,
      "type": "tchmi:general#/definitions/Boolean",
      "category": "Read Only (Set by linked input field)",
      "description": "",
      "requiredOnCompile": false,
      "readOnly": false,
      "bindable": true,
      "heritable": true,
      "propertyName": "Show",
      "propertySetterName": "setShow",
      "propertyGetterName": "getShow",
      "refTo": ""
    },
    {
      "name": "data-tchmi-hidetransformation",
      "displayName": "HideTransformation",
      "visible": true,
      "type": "tchmi:framework#/definitions/TransformList",
      "category": "Configuration",
      "description": "",
      "requiredOnCompile": false,
      "readOnly": false,
      "bindable": true,
      "heritable": true,
      "propertyName": "HideTransformation",
      "propertySetterName": "setHideTransformation",
      "propertyGetterName": "getHideTransformation",
      "refTo": ""
    },
    {
      "name": "data-tchmi-showtransformation",
      "displayName": "ShowTransformation",
      "visible": true,
      "type": "tchmi:framework#/definitions/TransformList",
      "category": "Configuration",
      "description": "",
      "requiredOnCompile": false,
      "readOnly": false,
      "bindable": true,
      "heritable": true,
      "propertyName": "ShowTransformation",
      "propertySetterName": "setShowTransformation",
      "propertyGetterName": "getShowTransformation",
      "refTo": ""
    },
    {
      "name": "data-tchmi-autoclose",
      "displayName": "AutoClose",
      "visible": true,
      "type": "tchmi:general#/definitions/Boolean",
      "category": "Configuration",
      "description": "",
      "requiredOnCompile": false,
      "readOnly": false,
      "bindable": true,
      "heritable": true,
      "propertyName": "AutoClose",
      "propertySetterName": "setAutoClose",
      "propertyGetterName": "getAutoClose",
      "refTo": ""
    }
  ],
  "virtualRights": [],
  "$schema": "../../Packages/Beckhoff.TwinCAT.HMI.Framework.12.742.5/runtimes/native1.12-tchmi/Schema/UserControlConfig.Schema.json",
  "description": ""
}